0
0
0
7
0
1
0
0
0
7
8
8
0
5
4
0
1
1
0
1
11
11
0
0
0
7
7
2
1
1
0
12
1
7
0
7
1
4
0
4
1
0
0
0
0
0
0
0
0
0
1
0
10
0
0
0
1
0
0
10
0
0
1
0
11
0
0
0
10
1
1
10
7
1
0
0
4
8
1
1
7
10
1
1
2
7
1
7
10
4
0
10
10
8
2
1
0
10
10
7
0
0
10
10
0
7
0
1
0
7
0
1
7
0
7
10
0
10
10
7
0
7
7
0
0
0
1
1
1
0
1
0
0
4
4
4
1
0
10
0
0
0
0
1
4
2
1
10
7
0
0
0
0
9
0
0
0
1
0
1
7
7
7
1
1
1
0
7
0
1
1
7
9
1
10
4
1
0
10
1
10
10
7
1
0
7
11
2
10
9
0
0
0
8
4
10
7
0
4
0
1
0
10
0
0
4
8
7
0
0
7
7
7
7
0
0
1
0
0
0
0
0
0
0
0
0
0
11
11
11
0
7
0
1
7
7
10
10
0
3
1
0
1
0
3
10
0
0
0
0
0
0
0
0
0
0
0
0
12
1
0
0
0
7
7
4
4
11
12
1
9
6
0
3
6
3
0
0
8
0
3
5
7
4
1
0
7
7
0
1
10
10
11
7
7
1
12
7
7
0
8
7
0
0
0
0
7
11
4
10
0
7
0
10
0
1
1
7
0
7
0
0
0
0
7
0
7
0
7
8
1
1
7
11
11
0
1
1
1
10
7
7
1
1
0
6
1
0
1
7
0
2
9
11
7
7
7
0
7
0
12
0
12
0
0
7
1
2
7
0
0
1
0
1
0
0
0
0
11
11
1
1
0
1
0
1
2
1
0
1
1
0
0
0
0
0
0
2
10
12
11
0
8
0
8
8
12
12
8
1
1
0
3
7
0
0
7
0
8
7
1
1
0
0
0
1
0
1
0
0
7
3
0
0
1
7
6
12
7
2
7
7
7
0
0
7
1
1
0
1
1
0
7
7
0
0
7
0
12
0
7
12
10
0
0
0
7
7
12
7
0
0
0
1
7
7
7
1
1
7
1
1
7
0
0
0
0
0
7
0
10
11
0
1
0
1
1
7
0
7
1
0
2
11
1
0
1
1
0
7
12
7
11
0
0
0
0
0
0
0
0
0
11
1
7
0
1
1
1
1
1
7
0
0
0
1
0
0
0
0
7
7
0
1
7
12
0
0
0
0
0
0
0
12
1
0
0
0
0
0
6
0
1
1
1
12
0
0
4
0
0
0
1
0
1
1
1
0
1
0
0
0
0
6
1
1
4
0
1
0
0
0
0
1
9
0
7
0
0
0
0
0
0
6
4
7
7
0
0
12
0
4
0
12
12
12
12
12
0
1
0
0
12
12
0
1
0
4
0
0
1
0
0
0
1
8
0
0
0
0
1
7
0
0
0
0
0
7
7
0
0
0
0
0
0
0
3
0
0
0
0
1
6
3
0
0
0
0
6
0
0
8
7
0
0
0
3
0
0
7
0
0
4
0
0
0
7
7
7
1
7
0
0
1
4
0
1
4
0
1
0
0
0
7
0
0
7
0
0
0
0
0
0
0
1
7
7
1
1
0
0
0
0
1
0
0
0
0
0
0
0
0
0
0
0
1
12
1
0
1
0
0
0
1
7
0
8
0
0
9
1
7
0
7
7
12
12
12
0
0
0
1
10
7
7
0
0
0
0
0
0
0
0
0
0
1
1
1
1
0
0
0
7
10
12
7
0
10
5
7
0
0
0
10
7
6
3
0
0
10
11
0
0
1
1
0
12
0
1
0
0
0
4
0
0
0
4
0
0
0
4
1
0
0
1
3
8
0
0
0
0
0
0
7
7
0
1
1
1
7
0
0
0
1
10
1
7
7
7
7
7
0
7
7
0
0
0
0
1
0
0
6
0
1
0
1
7
8
10
0
0
0
0
0
0
0
0
0
0
0
0
0
0
0
0
0
1
0
0
0
6
0
0
0
4
0
0
0
0
0
0
0
0
1
1
1
0
3
7
8
6
0
1
0
0
0
1
0
8
0
1
1
0
0
6
1
0
0
1
0
0
0
0
0
1
7
0
2
4
0
1
10
7
0
6
0
0
0
1
2
0
1
0
0
0
0
0
0
0
0
0
0
4
1
1
7
6
7
1
0
0
0
0
0
1
5
6
0
0
0
0
0
0
0
7
0
0
8
0
0
0
1
0
0
0
8
0
0
0
1
0
0
0
7
0
9
9
9
7
11
7
0
0
0
4
12
1
10
0
1
0
0
0
0
6
0
0
0
0
0
4
0
0
0
0
0
1
0
1
1
10
0
0
1
0
4
0
1
0
0
7
1
1
1
3
0
0
0
7
0
6
7
4
0
1
0
12
0
0
0
7
0
0
0
0
1
0
0
1
0
6
7
4
0
1
0
0
10
6
0
0
0
0
1
0
0
0
0
0
0
0
8
1
0
0
6
1
4
1
0
7
1
0
2
0
0
0
12
6
1
0
3
1
4
0
0
0
0
0
0
0
0
0
1
1
0
4
7
1
0
1
0
10
12
7
0
0
0
6
0
0
0
0
0
0
6
9
11
7
7
7
1
1
0
0
0
0
0
0
0
0
0
0
0
0
0
0
0
0
0
7
7
7
7
7
1
0
0
0
0
0
0
0
0
7
7
0
0
0
7
7
0
0
0
0
0
0
0
0
0
0
0
1
12
0
7
0
1
4
4
4
3
0
0
0
1
6
4
0
4
0
0
0
0
0
0
4
0
7
1
1
0
0
11
1
1
12
10
7
1
1
0
1
1
1
12
1
7
7
1
10
1
4
5
0
0
0
3
0
0
0
0
1
0
0
1
0
12
12
7
7
0
1
0
0
0
0
0
0
0
4
1
1
0
0
1
0
0
0
0
0
0
0
0
4
0
0
0
1
1
1
0
1
0
0
0
0
0
0
0
1
12
12
1
0
0
0
0
0
1
7
1
3
6
1
3
4
1
0
0
0
0
0
0
0
12
12
0
0
0
0
0
0
0
0
0
0
1
6
10
7
0
3
0
0
0
0
0
0
0
0
1
1
0
0
0
10
0
1
12
6
1
1
0
0
0
0
0
12
0
0
0
1
0
0
0
8
1
4
0
1
0
0
1
3
0
0
0
0
0
0
0
1
0
1
1
0
0
12
0
0
0
0
0
0
0
0
0
0
0
1
0
0
0
1
0
0
1
0
0
0
0
0
1
0
10
9
1
1
4
0
0
12
0
1
6
12
9
0
0
0
0
0
0
0
12
8
0
9
7
1
8
8
0
0
0
0
4
0
1
0
0
0
0
6
0
4
0
0
1
6
1
10
1
0
1
3
0
3
1
0
4
1
1
0
1
0
1
10
1
1
0
0
0
6
1
1
0
0
1
8
0
6
0
0
9
0
1
1
0
0
10
1
0
0
0
0
0
0
1
3
0
0
0
0
0
0
1
1
4
0
10
1
1
1
10
10
7
0
1
4
1
8
0
0
0
0
0
1
0
10
0
1
0
9
0
0
1
9
0
0
0
0
0
1
1
8
1
8
0
1
0
0
10
8
6
0
0
8
1
0
0
0
0
0
0
0
0
0
0
7
6
1
0
4
1
0
0
0
4
1
8
0
1
10
1
8
0
0
0
8
1
0
0
0
10
8
0
0
1
0
0
0
1
0
0
0
0
0
1
0
9
0
0
0
0
0
0
0
0
0
0
0
0
0
1
0
0
0
0
0
1
1
0
4
4
4
0
0
0
0
1
9
9
0
0
0
7
0
0
6
0
0
10
1
0
0
0
0
1
0
0
0
0
0
0
0
1
0
0
1
0
0
0
0
7
0
1
0
0
10
0
0
0
0
0
1
0
0
8
0
7
0
0
0
0
0
1
0
0
11
0
0
0
10
0
0
0
4
1
0
10
7
0
0
6
0
0
0
0
1
0
10
0
0
0
1
0
7
0
0
4
0
7
0
0
0
0
0
10
7
0
1
10
12
7
0
0
0
0
1
1
1
11
11
7
0
0
6
0
0
0
7
3
1
1
0
7
0
7
0
0
0
4
0
0
0
0
0
6
6
0
0
0
0
0
1
1
7
4
6
1
10
10
7
7
0
0
6
9
0
0
8
1
1
0
0
12
0
12
0
1
0
0
0
1
1
0
0
0
0
0
0
1
0
0
1
0
0
0
0
0
0
0
1
0
4
4
0
0
0
5
4
6
1
7
7
0
0
0
1
0
0
0
0
0
0
0
0
0
0
10
1
8
1
1
0
1
1
0
0
0
3
0
1
1
1
7
0
7
0
0
0
1
7
7
0
7
0
0
8
4
0
0
0
0
0
0
0
6
1
0
0
0
0
0
6
0
1
0
7
0
0
0
0
0
6
1
0
11
7
1
12
1
1
0
0
0
0
0
0
1
1
1
8
0
0
4
7
0
0
0
8
0
1
1
0
0
0
11
7
0
0
0
0
0
0
1
11
0
12
0
0
0
1
0
0
0
0
1
0
0
0
0
0
0
0
0
0
0
8
7
1
0
1
0
0
8
0
0
1
0
0
0
0
0
0
0
1
0
1
1
0
1
0
0
0
0
1
0
0
0
7
1
0
0
0
8
0
0
0
0
0
0
0
0
0
0
0
0
0
0
0
12
1
0
1
1
1
0
1
0
0
0
0
0
0
0
12
0
0
0
0
1
0
0
0
0
0
0
0
0
0
0
0
0
1
0
0
0
0
0
0
0
11
0
0
1
0
0
10
0
0
0
0
0
0
0
0
0
0
1
0
0
0
0
12
1
1
0
8
0
0
0
0
0
0
0
10
7
0
0
0
1
0
0
1
0
0
1
0
0
0
12
0
0
0
0
0
1
0
0
0
7
0
10
1
7
0
1
0
4
0
0
0
0
0
0
1
0
0
0
0
10
1
0
0
0
0
0
0
0
0
8
0
0
0
10
1
4
4
0
0
0
1
0
0
0
1
0
0
0
0
0
1
0
0
0
0
0
0
0
0
0
1
0
0
0
0
9
0
0
0
0
0
0
0
0
0
0
0
1
1
11
1
7
0
0
12
1
8
1
1
10
9
8
0
9
0
0
0
0
8
6
1
0
0
1
0
0
1
0
0
0
0
0
7
0
0
0
7
0
0
0
0
0
0
0
0
1
0
0
1
0
0
0
1
1
0
0
0
0
0
0
0
0
1
1
12
12
5
0
0
0
1
0
0
0
0
0
0
0
0
0
1
0
0
0
0
0
0
0
0
0
0
1
0
0
1
0
0
0
0
0
1
0
4
0
0
0
1
0
0
0
0
0
0
0
1
1
0
0
1
1
0
0
0
0
1
7
8
4
8
0
0
0
0
0
0
7
0
0
0
0
1
10
10
0
0
0
1
0
1
1
0
0
0
0
0
0
0
0
0
8
0
0
0
1
0
0
0
0
0
4
0
0
0
1
0
1
0
0
0
0
0
0
0
8
0
10
1
1
0
0
0
0
0
0
0
0
0
0
0
0
0
0
10
0
0
1
0
8
0
6
0
0
0
0
0
0
0
0
0
1
1
0
0
1
0
0
0
0
0
0
1
0
1
0
10
10
7
0
0
0
0
0
1
5
7
7
1
0
0
9
0
1
0
7
12
0
0
0
0
0
0
0
0
0
0
4
0
9
0
0
0
0
0
0
8
0
0
0
0
0
1
0
0
0
0
0
8
0
0
0
0
0
0
8
0
0
0
0
0
0
0
0
0
0
0
0
0
0
0
0
0
0
7
8
0
0
0
0
0
0
0
0
0
0
0
0
0
7
10
0
6
0
10
12
7
0
10
12
0
0
0
10
0
0
0
12
12
0
1
0
0
0
0
0
0
0
1
0
12
0
0
0
0
0
0
0
0
0
1
0
10
0
0
12
0
0
1
0
0
0
0
0
0
1
9
0
10
0
0
0
0
0
7
0
0
0
0
0
0
0
0
0
0
0
7
0
0
0
0
0
0
0
1
12
0
1
0
0
0
0
0
1
0
0
0
0
0
0
0
0
1
0
0
1
0
0
10
1
7
0
0
12
8
0
10
10
0
1
0
0
0
1
0
1
1
8
0
0
0
7
0
0
1
0
0
0
0
8
0
0
0
0
12
0
1
7
0
0
0
0
0
0
12
0
0
0
0
0
0
7
0
0
0
0
0
0
12
12
0
0
0
1
0
0
0
0
0
0
1
0
0
0
8
6
0
0
0
4
0
0
0
0
0
0
0
0
0
0
12
12
1
12
0
1
5
0
0
0
0
0
10
10
7
0
12
0
0
0
0
0
0
0
0
0
0
0
0
0
0
1
0
0
0
0
0
0
0
0
0
0
0
0
0
0
0
0
1
0
0
0
0
0
0
0
1
0
0
0
0
0
0
0
0
0
6
0
0
0
0
1
1
0
9
7
0
6
0
0
10
1
1
1
1
10
4
2
1
1
0
0
1
0
7
0
1
1
7
0
0
0
0
1
1
0
0
0
0
0
1
1
0
0
0
1
1
1
1
10
7
1
1
7
10
4
0
10
1
8
2
1
0
5
0
0
0
0
0
1
0
0
8
7
0
0
1
0
12
10
7
0
0
0
10
1
1
0
1
1
0
0
1
0
2
0
0
1
0
0
1
7
10
0
12
1
0
1
1
1
1
0
0
0
1
0
0
7
1
0
4
7
0
0
0
0
4
2
0
0
0
0
0
4
0
0
7
4
1
2
12
1
0
4
4
4
1
3
0
1
0
0
0
0
0
0
1
1
0
0
1
0
1
0
0
0
0
7
0
0
0
1
7
4
0
0
1
0
1
0
0
0
0
7
8
0
0
1
0
0
0
0
1
0
0
0
0
1
0
1
0
0
0
1
0
0
0
0
0
1
4
0
0
0
8
0
11
0
1
8
7
0
1
0
0
0
0
0
1
8
0
0
1
0
1
0
0
0
0
0
0
0
0
0
0
0
1
1
1
0
1
4
1
1
0
0
0
0
0
0
0
0
4
0
0
7
4
1
10
7
0
1
1
1
1
0
4
4
0
0
0
0
0
0
0
0
0
0
0
0
0
0
4
1
4
0
0
0
10
1
0
4
1
0
0
7
0
0
0
9
0
4
0
0
0
0
1
0
2
0
0
0
0
0
10
7
0
0
0
0
0
7
7
0
4
0
0
0
0
0
1
0
7
0
4
0
1
0
1
0
0
0
0
11
1
0
0
0
0
0
0
0
10
0
0
7
10
0
0
8
1
0
1
1
7
4
0
0
0
1
1
0
0
0
0
1
0
4
0
7
1
1
0
0
11
4
0
4
12
7
10
1
7
0
3
0
0
0
0
0
0
0
4
1
0
0
0
1
8
4
4
0
0
0
0
0
0
0
1
0
0
0
4
0
0
9
0
7
0
0
0
0
1
0
0
0
0
0
0
10
10
0
0
0
0
1
0
0
7
6
1
4
0
4
0
0
0
1
0
4
0
10
0
0
0
1
4
0
0
0
0
0
0
0
1
0
0
1
9
0
0
7
0
0
4
0
0
0
0
7
0
0
0
0
0
1
0
0
7
4
0
0
0
7
0
0
4
0
0
0
0
0
4
0
1
0
1
7
0
0
4
4
7
6
1
1
1
0
10
4
0
0
0
0
4
10
7
4
0
0
0
0
0
0
0
0
4
7
1
7
1
1
0
9
0
0
7
0
0
0
0
0
0
1
1
7
4
0
0
0
9
9
0
0
0
0
0
0
0
0
0
0
0
0
0
4
4
0
0
0
0
0
0
4
0
0
0
0
1
0
0
9
0
1
0
7
0
1
1
4
0
0
1
0
0
2
9
4
0
0
1
0
4
7
0
0
0
1
0
0
0
0
0
0
4
0
6
0
0
1
7
0
8
1
0
0
0
7
0
4
9
0
0
0
0
1
7
0
1
7
4
1
0
0
3
7
4
0
10
7
0
0
0
0
4
10
0
7
7
0
1
7
0
0
0
0
9
1
10
0
0
7
0
7
0
0
0
0
0
0
0
0
1
1
1
10
0
0
0
0
0
1
8
0
9
7
1
7
0
0
7
0
7
1
9
0
0
10
1
0
1
0
0
1
2
0
9
10
0
0
7
7
4
0
0
0
1
0
0
0
0
4
0
0
0
0
4
0
4
0
7
0
4
0
0
10
11
9
0
8
1
11
1
1
1
0
0
4
0
0
1
0
0
0
0
0
8
9
7
1
0
0
0
0
0
1
0
0
0
0
10
1
0
4
0
0
0
8
6
0
0
1
0
0
0
7
0
0
1
8
4
1
1
8
0
0
0
0
0
1
12
0
7
6
0
11
2
7
4
0
1
0
1
4
1
10
10
7
1
7
1
0
7
0
0
1
1
7
0
0
0
0
0
1
0
4
4
0
9
7
1
1
1
1
0
0
0
1
1
1
1
12
0
0
0
0
0
0
0
0
4
0
1
9
1
7
0
4
1
0
0
0
0
10
1
0
0
7
0
0
0
0
0
0
0
1
0
7
0
0
4
11
7
10
0
0
0
0
0
10
7
0
0
10
0
0
0
1
0
0
1
0
0
1
0
0
0
0
0
1
7
7
0
0
0
6
7
0
10
1
0
0
0
0
0
1
1
0
0
0
1
7
12
10
0
1
0
1
1
0
0
0
0
0
0
1
0
0
0
1
1
0
0
7
0
0
0
1
4
1
0
0
0
0
0
0
0
0
0
1
1
0
0
0
4
0
0
1
0
0
2
0
0
0
4
0
1
0
0
7
4
0
11
11
0
0
0
10
1
0
1
0
0
0
0
7
4
0
0
0
1
0
0
1
1
7
4
1
9
0
0
7
0
1
0
0
1
0
1
0
0
0
0
0
0
0
1
7
0
8
1
11
1
0
0
0
0
1
0
0
0
0
0
0
0
0
0
1
0
1
0
0
7
4
0
0
0
0
6
0
0
0
0
0
0
0
0
0
0
0
0
0
0
0
0
0
1
1
0
0
1
0
0
0
1
1
0
0
0
1
0
0
6
0
0
0
7
10
0
1
0
0
0
8
1
0
1
2
0
0
0
0
0
10
7
10
0
1
0
10
0
0
1
1
0
10
1
0
7
0
0
1
0
1
4
0
0
0
1
1
1
0
7
4
10
2
1
0
0
7
4
0
0
0
7
0
6
1
1
1
0
0
0
4
0
7
9
0
0
0
6
0
0
0
10
0
7
0
4
4
7
8
0
0
1
7
0
0
0
0
0
0
0
0
4
0
9
0
0
0
0
0
0
1
4
0
0
0
8
10
0
0
1
0
0
7
7
7
7
7
0
0
4
0
7
0
0
8
0
4
7
8
0
10
0
0
0
0
0
0
1
0
0
10
9
0
7
0
0
9
0
1
7
6
0
0
1
0
1
1
9
0
4
0
0
0
0
0
1
0
0
10
0
0
0
0
3
0
1
0
11
0
12
12
4
0
4
7
7
10
0
1
7
7
12
0
0
7
4
1
0
1
0
0
1
0
0
0
0
1
8
0
0
0
1
0
6
6
0
0
0
0
0
0
0
0
10
1
1
8
0
0
2
7
0
0
0
4
0
0
0
0
0
8
1
1
0
0
0
0
0
7
9
0
0
0
0
0
0
1
0
0
0
0
4
0
9
0
7
1
0
0
0
1
1
0
4
8
0
0
1
1
8
4
0
0
4
1
0
0
1
7
9
7
1
0
10
0
0
7
0
0
0
0
0
0
4
1
0
0
0
0
0
0
0
0
9
0
8
0
10
4
10
0
7
8
0
0
0
0
0
0
0
0
0
4
0
10
0
0
6
1
0
0
4
0
0
0
0
0
0
0
4
1
3
0
0
0
0
4
0
8
7
1
0
0
4
1
0
0
0
0
0
4
10
0
1
0
9
0
0
8
0
7
0
0
0
0
0
0
4
10
1
0
1
7
10
0
0
0
0
0
7
0
7
1
9
0
2
1
7
0
0
0
0
0
0
0
0
1
0
0
0
8
7
0
0
7
0
7
4
0
0
7
1
4
9
0
0
7
1
4
1
4
0
1
7
4
0
9
10
4
0
0
0
0
10
1
7
0
0
0
0
0
0
0
0
0
10
7
7
0
0
1
7
0
1
0
8
0
1
1
0
7
1
0
4
0
0
0
0
0
7
0
0
10
1
0
7
4
0
0
0
0
0
0
0
0
0
0
0
0
0
0
0
0
0
4
4
4
8
0
0
0
7
9
0
4
0
0
9
7
0
0
0
0
2
0
0
0
0
0
0
7
10
0
0
0
7
0
0
0
0
6
4
0
4
0
8
1
0
0
0
4
0
0
0
4
0
0
0
4
1
1
0
12
0
0
6
1
1
0
0
0
0
0
0
0
10
10
8
7
1
1
1
4
4
0
0
0
0
7
0
4
10
0
10
8
0
0
9
7
0
1
5
0
0
0
0
0
0
0
4
0
0
0
0
0
0
0
0
0
0
1
0
0
0
0
0
0
0
0
0
1
0
4
0
7
7
0
0
0
1
0
9
0
0
0
0
0
0
10
0
0
3
0
0
0
4
0
0
1
0
4
0
0
1
0
0
7
1
10
10
9
0
0
0
0
1
10
1
0
0
7
0
0
1
0
7
8
0
0
0
0
0
0
0
0
0
7
8
7
0
0
7
0
1
0
0
0
4
1
1
10
4
0
10
0
0
0
8
10
0
0
4
0
7
1
2
0
0
0
0
0
0
1
10
7
4
0
0
0
0
8
0
0
1
0
1
7
0
7
4
4
4
7
0
0
9
4
0
1
1
4
4
4
1
0
5
0
1
0
0
0
10
4
0
8
4
7
0
0
1
1
4
0
0
1
10
0
1
0
0
0
11
1
0
0
0
0
1
0
0
0
1
0
1
7
0
0
1
3
4
0
1
8
1
3
0
0
0
1
7
4
7
0
7
4
0
0
0
0
0
0
7
0
0
0
0
1
1
0
1
0
0
0
0
0
0
0
0
0
0
1
0
0
0
0
0
1
0
0
0
0
0
0
0
7
0
0
0
0
0
0
0
0
0
0
0
1
0
0
0
0
0
0
0
0
0
0
0
0
0
0
4
0
0
7
9
0
0
1
1
0
7
0
0
0
0
0
0
0
0
0
8
0
0
1
0
0
0
4
0
0
0
0
0
0
0
0
0
0
0
1
9
9
1
1
0
1
1
8
0
0
0
0
0
0
0
4
2
1
0
4
0
0
7
0
0
7
0
7
0
0
4
9
0
0
0
0
0
1
0
0
4
0
0
0
9
0
0
10
1
0
1
1
2
7
0
7
1
1
0
0
0
0
0
4
7
10
1
9
10
0
1
0
4
0
0
0
4
0
0
0
0
0
4
1
1
0
0
0
7
1
9
9
0
7
0
0
0
0
7
0
0
1
0
0
0
4
10
0
9
10
0
1
0
12
0
0
0
1
7
7
4
0
1
1
2
0
2
0
0
8
7
4
1
4
0
0
10
0
0
0
4
0
0
1
0
0
0
0
0
0
0
0
0
0
0
0
0
0
0
0
0
0
0
1
0
0
0
1
10
1
0
0
0
1
1
0
0
0
0
0
0
0
0
0
0
0
7
0
1
1
7
4
0
0
1
0
0
8
0
1
7
0
0
9
1
0
0
0
0
0
0
0
0
0
0
1
1
8
4
0
0
0
0
4
0
0
10
0
0
0
0
0
0
0
7
9
1
0
1
1
0
0
1
0
0
0
1
0
0
4
4
0
1
0
0
0
0
1
1
0
0
0
0
0
0
0
0
0
0
0
0
0
0
0
0
1
3
0
4
0
1
9
10
0
8
4
1
0
9
1
0
0
0
0
0
1
0
0
7
0
1
0
0
0
0
0
0
0
4
0
0
8
10
1
0
0
0
0
1
1