000000000000
000000000000
000000000000
000000100000
000000000000
000000000000
000000000000
000000000010
000000000000
000000000000
000100000000
100000000000
000000000000
000100000000
000000000000
100000000000
000000000000
000000000000
000000000000
000000300000
000000000000
000000000000
001000000000
000000000000
000000000000
000000000000
000000000000
000000000000
000000000000
000000000000
000000000000
000000100000
000000000000
000000000000
000000000000
000000000000
000000000000
000000000000
000000000000
000000000000
000000000000
000000000000
000000030000
000000000000
000000000000
000000000000
100000000000
000000000000
100000000000
100000000000
000000000000
000000000000
000000000000
000000000000
000000000000
000000000000
000100000000
000000000100
000000000000
110000000000
000000000000
000000000000
000000000000
000000000000
000000000000
000000100000
000000000000
000000000000
000000000000
000000000000
000100000000
000000000000
000000000000
000000100000
000000000000
000000000000
000000000000
000000000000
000100000000
000100000000
100000000000
000000000000
000000000000
000000000000
000000000000
000000300000
000000000000
000100000000
000000000000
000000000000
000010000000
000000000000
000000000000
000000000000
000000110000
000000100000
000010000000
000000000000
000000100000
000000000000
000100000000
000000000000
000000000000
000000000000
000000000000
000000000000
000000000000
000000000000
000000000000
000000000000
000000000000
000000000000
000000000000
100000000000
000000000000
000000000000
000000000000
000000000000
000000000000
000000000000
000100000000
000100000000
000000000000
000000000000
000000000000
000000000000
000000000000
200000000000
000000000000
000000000000
000000000000
000000000000
100000000000
000000000000
000000000000
000000000000
000000000000
000000000000
000000000000
000000000000
000000000000
000000000000
000000000000
000000000000
000000000000
000000000000
000000000000
000100000000
100000000000
000000100000
000000000000
000000000000
000000000000
000000000000
000000000000
000000000000
000000000000
000000010000
000000000000
000000000000
000000000000
000100000000
000100000000
000000000000
000000000000
000000000000
000000300000
000000000000
000100000000
000100000000
000000000000
000000000000
000000000000
000000000000
000100003000
000000000000
000000000000
000000000000
000000000000
000000000000
000000000000
000000000000
000000000000
000000000001
000000000000
000000000000
000000000000
000000100000
000100000000
100000000000
000100000000
000000000000
000000000000
000000000000
000100000000
000100000000
000000000000
000000000000
000000000000
000000000000
000000000100
000000000000
000000000000
000000100000
000000000000
000000000000
000000000000
000000000000
000000000000
000000000000
000000000000
000000000000
000000000000
000100000000
000000000000
000000000000
000000000000
000000000000
000000000000
000000000000
000000000000
100100010000
000000000000
000000000000
000000200000
100100000000
000000000000
000000000000
000000000000
000000000000
000000000000
000000000000
000000000000
000000000000
000000000000
110000000000
200000000000
000000000000
200000000000
000000300000
000000000000
000000000000
000000000000
000000000000
000000000000
000100000000
000000000000
000100000000
000000000000
000000000000
000000000000
000000000000
000001000000
100100000000
000000000000
000000000000
000000000000
000000000000
000000001000
000000000000
000100000000
000000000000
100000000000
000100000000
000000000000
000000000000
000000000000
000002000000
000000000000
000100010000
000000000000
000100000000
000100000000
000000000000
000000000000
000000000000
000000000000
000000000000
100000000000
000000100000
000000000000
000000000000
000000000000
000000100000
000000000000
000000000000
000000000000
000000000000
000000000000
000000000000
000000000000
000000000000
000000000000
000000000000
000000000000
000000000000
000000000000
000000000000
000000000000
000000000000
100000000000
000000010000
000000000000
000000000000
000000000000
010000000000
000000000000
000100100000
000000000000
000000000000
000000000000
000000000000
000000000000
000000010000
000000000000
000100000000
000000000000
000000000000
000000000000
000000000000
000000000000
000000000000
000000000000
000000000000
000000010000
000000000000
000001000000
000000000000
100000000000
000000000000
000000000000
000000000000
000000000000
000000000000
000000100000
000000000000
000000000000
000000000000
000000000000
000000000000
000000000000
000000000000
000000000000
000000000000
000000000000
200000000000
000000000000
000000000000
000000000000
000000100000
000000000000
000000000000
000000000000
000000110000
000000000000
000000000000
000000000000
000000100000
000000000000
000000000000
000000000000
000000000000
000000000000
001000000000
000000000000
000000100000
000000000000
000000000000
000000000000
000000000000
000000000000
000000000000
000000000000
000000000000
000000000000
100000000000
000000000000
000000000000
000000000000
000000000000
000000000000
000000000000
000000000000
000000000000
000000000100
000000000000
000000000000
000000000000
000000000000
000000100000
000000000000
000000000000
000000000000
000000000000
000000000000
000000000000
000000100000
000000000000
000000000000
000000000000
000000100000
000000000000
100000000000
000000300000
000000000000
000000100000
000000000000
000000000000
000100000000
000000000000
000000000000
000000000000
000000000010
000100000000
000000000000
000000000000
000000000000
000000000000
000000000000
000000000000
000000000000
000000000000
100000000000
000000000100
000000000100
000000000000
000000000000
000000000000
000000000000
000000000110
000000100000
000000000000
000000000000
000000000000
000000000000
000000000100
000000000000
000000000000
000100000000
000000000000
000000000000
000000000000
000000000000
000000000000
000000000000
000100000000
000100000000
000000000000
000000000000
000000100000
000000000000
000100000000
000000000000
000000000000
000000000000
000000001000
000100100000
000000000000
000000000000
000000000000
000000000000
000000000000
000001000000
000000000000
200000000000
200000000000
000000000000
000000000000
000000100000
000000000000
000000000000
000000000000
000000100000
000000000000
000000000000
000000000000
000000000000
000000000000
000000000000
000000000000
000000000000
000000100000
000000000000
000100000000
000000000000
000000000000
000000000000
000000000000
000000000000
000000000000
000000100000
000000000000
000100100000
000000000000
000000000000
100000000000
000000000100
000000000000
000000000000
000000000000
000000000000
000000100000
000000000000
000000000000
000000000000
000000000010
000000000100
000000000000
000100000000
100000000000
000000000000
000000000000
000000000000
100000000000
100000000000
000000001100
000000010000
000000100000
000000000100
100000000000
100000000000
000000100000
000000000000
000000000000
000000000000
000000000000
000000000000
000000000000
000000000000
000000000000
000000000000
000000000000
100000000000
100000000000
000100000000
000100000000
000000000000
000000000000
000000000000
000000000000
000000000000
000000000000
000000000000
000000000000
000000100000
000010100000
000000000000
000000000000
000000000000
000000000000
000000000000
000000010000
000000000000
000000000000
000000000000
000000100000
000000000000
000000100000
000000010000
000000100000
000000000000
000000000000
000000000000
000000000000
000000100000
000000000000
000000000000
000000000000
000000000000
000000100000
000000000000
000000000000
000000000000
100000000000